{
	"data": [
		{
			"puzzleId": "00008",
			"fen": "r6k/pp2r2p/4Rp1Q/3p4/8/1N1P2R1/PqP2bPP/7K b - - 0 24",
			"moves": "f2g3 e6e7 b2b1 b3c1 b1c1 h6c1",
			"movesNumber": 3,
			"rating": 2037,
			"ratingDeviation": 77,
			"popularity": 95,
			"nbPlays": 9125,
			"gameUrl": "https://lichess.org/787zsVup/black#48",
			"openingTags": "",
			"themes": ["crushing", "hangingPiece", "long", "middlegame"]
		},
		{
			"puzzleId": "0000D",
			"fen": "5rk1/1p3ppp/pq3b2/8/8/1P1Q1N2/P4PPP/3R2K1 w - - 2 27",
			"moves": "d3d6 f8d8 d6d8 f6d8",
			"movesNumber": 2,
			"rating": 1455,
			"ratingDeviation": 74,
			"popularity": 96,
			"nbPlays": 35537,
			"gameUrl": "https://lichess.org/F8M8OS71#53",
			"openingTags": "",
			"themes": ["advantage", "endgame", "short"]
		},
		{
			"puzzleId": "0008Q",
			"fen": "8/4R3/1p2P3/p4r2/P6p/1P3Pk1/4K3/8 w - - 1 64",
			"moves": "e7f7 f5e5 e2f1 e5e6",
			"movesNumber": 2,
			"rating": 1356,
			"ratingDeviation": 78,
			"popularity": 91,
			"nbPlays": 750,
			"gameUrl": "https://lichess.org/MQSyb3KW#127",
			"openingTags": "",
			"themes": ["advantage", "endgame", "rookEndgame", "short"]
		},
		{
			"puzzleId": "0009B",
			"fen": "r2qr1k1/b1p2ppp/pp4n1/P1P1p3/4P1n1/B2P2Pb/3NBP1P/RN1QR1K1 b - - 1 16",
			"moves": "b6c5 e2g4 h3g4 d1g4",
			"movesNumber": 2,
			"rating": 1103,
			"ratingDeviation": 74,
			"popularity": 88,
			"nbPlays": 604,
			"gameUrl": "https://lichess.org/4MWQCxQ6/black#32",
			"openingTags": "Kings_Pawn_Game Kings_Pawn_Game_Leonardis_Variation",
			"themes": ["advantage", "middlegame", "short"]
		},
		{
			"puzzleId": "000Pw",
			"fen": "6k1/5p1p/4p3/4q3/3nN3/2Q3P1/PP3P1P/6K1 w - - 2 37",
			"moves": "e4d2 d4e2 g1f1 e2c3",
			"movesNumber": 2,
			"rating": 1542,
			"ratingDeviation": 75,
			"popularity": 92,
			"nbPlays": 621,
			"gameUrl": "https://lichess.org/au2lCK5o#73",
			"openingTags": "",
			"themes": ["crushing", "endgame", "fork", "short"]
		},
		{
			"puzzleId": "000Sa",
			"fen": "2Q2bk1/5p1p/p5p1/2p3P1/2r1B3/7P/qPQ2P2/2K4R b - - 0 32",
			"moves": "c4c2 e4c2 a2a1 c2b1",
			"movesNumber": 2,
			"rating": 1481,
			"ratingDeviation": 75,
			"popularity": 97,
			"nbPlays": 732,
			"gameUrl": "https://lichess.org/lTTa9lwd/black#64",
			"openingTags": "",
			"themes": ["advantage", "endgame", "short"]
		},
		{
			"puzzleId": "000VW",
			"fen": "r4r2/1p3pkp/p5p1/3R1N1Q/3P4/8/P1q2P2/3R2K1 b - - 3 25",
			"moves": "g6f5 d5c5 c2e4 h5g5 g7h8 g5f6",
			"movesNumber": 3,
			"rating": 2861,
			"ratingDeviation": 108,
			"popularity": 85,
			"nbPlays": 276,
			"gameUrl": "https://lichess.org/e9AY2m5j/black#50",
			"openingTags": "",
			"themes": ["crushing", "endgame", "long"]
		},
		{
			"puzzleId": "000Vc",
			"fen": "8/8/4k1p1/2KpP2p/5PP1/8/8/8 w - - 0 53",
			"moves": "g4h5 g6h5 f4f5 e6e5 f5f6 e5f6",
			"movesNumber": 3,
			"rating": 1592,
			"ratingDeviation": 79,
			"popularity": 75,
			"nbPlays": 109,
			"gameUrl": "https://lichess.org/l6AejDMO#105",
			"openingTags": "",
			"themes": ["crushing", "endgame", "long", "pawnEndgame"]
		},
		{
			"puzzleId": "000Zo",
			"fen": "4r3/1k6/pp3r2/1b2P2p/3R1p2/P1R2P2/1P4PP/6K1 w - - 0 35",
			"moves": "e5f6 e8e1 g1f2 e1f1",
			"movesNumber": 2,
			"rating": 1376,
			"ratingDeviation": 75,
			"popularity": 86,
			"nbPlays": 651,
			"gameUrl": "https://lichess.org/n8Ff742v#69",
			"openingTags": "",
			"themes": ["endgame", "mate", "mateIn2", "operaMate", "short"]
		},
		{
			"puzzleId": "000aY",
			"fen": "r4rk1/pp3ppp/2n1b3/q1pp2B1/8/P1Q2NP1/1PP1PP1P/2KR3R w - - 0 15",
			"moves": "g5e7 a5c3 b2c3 c6e7",
			"movesNumber": 2,
			"rating": 1414,
			"ratingDeviation": 78,
			"popularity": 75,
			"nbPlays": 526,
			"gameUrl": "https://lichess.org/iihZGl6t#29",
			"openingTags": "Benoni_Defense Benoni_Defense_Benoni-Indian_Defense",
			"themes": ["advantage", "master", "middlegame", "short"]
		}
	],
	"pagination": { "page": 1, "limit": 10, "total": 5751400, "totalPages": 575140 }
}
